{
  "project_info": {
    "project_number": "969285465624",
    "firebase_url": "https://myloginapp-839c7.firebaseio.com",
    "project_id": "myloginapp-839c7",
    "storage_bucket": "myloginapp-839c7.appspot.com"
  },
  "client": [
    {
      "client_info": {
        "mobilesdk_app_id": "1:969285465624:android:4e52f27c93635de8",
        "android_client_info": {
          "package_name": "com.example.myloginapp"
        }
      },
      "oauth_client": [
        {
          "client_id": "969285465624-4t6gddajtcdrc64rusm7tm3vvi6jqqcf.apps.googleusercontent.com",
          "client_type": 3
        }
      ],
      "api_key": [
        {
          "current_key": "AIzaSyBiCHqVV1r8AwRpkeBETsFLReLtwa7Pc9A"
        }
      ],
      "services": {
        "appinvite_service": {
          "other_platform_oauth_client": [
            {
              "client_id": "969285465624-4t6gddajtcdrc64rusm7tm3vvi6jqqcf.apps.googleusercontent.com",
              "client_type": 3
            }
          ]
        }
      }
    }
  ],
  "configuration_version": "1"
}